{
    "app-id" : "org.gnome.SimpleScan",
    "runtime" : "org.gnome.Platform",
    "runtime-version" : "master",
    "sdk" : "org.gnome.Sdk",
    "command" : "simple-scan",
    "rename-desktop-file" : "simple-scan.desktop",
    "tags" : [
        "devel"
    ],
    "desktop-file-name-prefix" : "(Development) ",
    "finish-args" : [
        "--device=dri",
        "--device=all",
        "--share=network",
        "--socket=fallback-x11",
        "--socket=wayland",
        "--talk-name=org.freedesktop.ColorManager"
    ],
    "cleanup" : [
        "/include",
        "/share/aclocal",
        "/man",
        "/share/man",
        "/share/gtk-doc",
        "/share/vala",
        "*.la",
        "*.a"
    ],
    "modules" : [
        {
            "name" : "libusb1",
            "buildsystem" : "autotools",
            "config-opts" : [
                "--disable-udev"
            ],
            "sources" : [
                {
                    "type" : "git",
                    "url" : "https://github.com/libusb/libusb.git"
                }
            ]
        },
        {
            "name" : "gusb",
            "buildsystem" : "meson",
            "config-opts" : [
                "-Ddocs=false",
                "-Dtests=false"
            ],
            "sources" : [
                {
                    "type" : "git",
                    "branch" : "main",
                    "url" : "https://github.com/hughsie/libgusb.git"
                }
            ]
        },
        {
            "name" : "udev",
            "config-opts" : [
                "--disable-hwdb",
                "--disable-logging",
                "--disable-gudev",
                "--disable-introspection",
                "--disable-keymap",
                "--disable-mtd_probe"
            ],
            "cleanup" : [
                "/include",
                "/etc",
                "/libexec",
                "/sbin",
                "/lib/pkgconfig",
                "/man",
                "/share/aclocal",
                "/share/doc",
                "/share/gtk-doc",
                "/share/man",
                "/share/pkgconfig",
                "*.la",
                "*.a"
            ],
            "sources" : [
                {
                    "type" : "git",
                    "url" : "https://github.com/gentoo/eudev.git"
                }
            ]
        },
        {
            "name" : "gudev",
            "buildsystem" : "meson",
            "config-opts" : [
                "-Dtests=disabled"
            ],
            "sources" : [
                {
                    "type" : "git",
                    "url" : "https://gitlab.gnome.org/GNOME/libgudev.git"
                }
            ]
        },
        {
            "name": "intltool",
            "cleanup": [ "*" ],
            "sources": [
                {
                    "type": "archive",
                    "url": "https://launchpad.net/intltool/trunk/0.51.0/+download/intltool-0.51.0.tar.gz",
                    "sha256": "67c74d94196b153b774ab9f89b2fa6c6ba79352407037c8c14d5aeb334e959cd"
                }
            ]
        },
        {
            "name" : "sane-backends",
            "buildsystem" : "autotools",
            "sources" : [
                {
                    "type" : "archive",
                    "url" : "https://gitlab.com/sane-project/backends/uploads/8bf1cae2e1803aefab9e5331550e5d5d/sane-backends-1.0.31.tar.gz",
                    "sha256" : "4a3b10fcb398ed854777d979498645edfe66fcac2f2fd2b9117a79ff45e2a5aa"
                }
            ]
        },
        {
            "name" : "colord",
            "buildsystem" : "meson",
            "config-opts" : [
                "-Ddaemon=false",
                "-Dargyllcms_sensor=false",
                "-Dbash_completion=false",
                "-Dman=false",
                "-Dudev_rules=false",
                "-Dsystemd=false",
                "-Dsane=true",
                "-Ddocs=false",
                "-Dtests=false",
                "-Dinstalled_tests=false",
                "-Dvapi=true"
            ],
            "sources" : [
                {
                    "type" : "git",
                    "branch" : "main",
                    "url" : "https://github.com/hughsie/colord.git"
                }
            ]
        },
        {
            "name" : "gphoto2",
            "buildsystem" : "autotools",
            "sources" : [
                {
                    "type" : "archive",
                    "url" : "https://sourceforge.net/projects/gphoto/files/libgphoto/2.5.26/libgphoto2-2.5.26.tar.bz2",
                    "sha256" : "7740fea3cbb78489071cdfec06c07fab528e69e27ac82734eae6a73eaeeabcd4"
                }
            ]
        },
        {
            "name" : "simple-scan",
            "buildsystem" : "meson",
            "builddir" : true,
            "sources" : [
                {
                    "type" : "git",
                    "url" : "https://gitlab.gnome.org/GNOME/simple-scan.git"
                }
            ]
        }
    ]
}
